A Soft Introduction to Machine Learning ·
…
Part 2 - Regression

set.seed(123)

Simple Linear Regression

First we fit a linear model to the data

dataset <-
read.csv(file = "../../static/data/intro_ml/Part2_Regression/Simple_Linear_Regression/Salary_Data.csv")

dataset %>% tbl_df()

## # A tibble: 30 x 2
##    YearsExperience Salary
##              <dbl>  <dbl>
##  1            1.10  39343
##  2            1.30  46205
##  3            1.50  37731
##  4            2.00  43525
##  5            2.20  39891
##  6            2.90  56642
##  7            3.00  60150
##  8            3.20  54445
##  9            3.20  64445
## 10            3.70  57189
## # ... with 20 more rows
…
The prediction is obviously pretty good since the data was mostly linear already.

Multiple linear regression

Read in the data:

dataset <-
read.csv("../../static/data/intro_ml/Part2_Regression/Multiple-Linear-Regression/Multiple_Linear_Regression/50_Startups.csv")
dataset %>% tbl_df()

## # A tibble: 50 x 5
##    R.D.Spend Administration Marketing.Spend State      Profit
##        <dbl>          <dbl>           <dbl> <fct>       <dbl>
##  1    165349         136898          471784 New York   192262
##  2    162598         151378          443899 California 191792
##  3    153442         101146          407935 Florida    191050
##  4    144372         118672          383200 New York   182902
##  5    142107          91392          366168 Florida    166188
##  6    131877          99815          362861 New York   156991
##  7    134615         147199          127717 California 156123
##  8    130298         145530          323877 Florida    155753
##  9    120543         148719          311613 New York   152212
## 10    123335         108679          304982 California 149760
## # ... with 40 more rows
…
# Quicly look at points and gradients/skewness
wcss_2 %>%
  tbl_df() %>%
  arrange(-value) %>%
  mutate(clusters = seq_along(value),
         gradient = lag(value)-value,
         gradient_rate_change = lag(gradient)-gradient) %>%
  mutate_all(round)

## # A tibble: 50 x 4
##     value clusters gradient gradient_rate_change
##     <dbl>    <dbl>    <dbl>                <dbl>
##  1 308862     1.00       NA                   NA
##  2 219909     2.00    88953                   NA
##  3 157201     3.00    62708                26245
##  4 104415     4.00    52786                 9922
##  5  82657     5.00    21758                31028
##  6  58349     6.00    24308               - 2551
##  7  53238     7.00     5111                19197
##  8  51131     8.00     2107                 3004
##  9  45110     9.00     6021               - 3914
## 10  43507    10.0      1603                 4418
## # ... with 40 more rows
…
By using the upper bound of the confidence interval of the mean reward we can prioritise those adds that currently have more possible headroom for reward while still placing emphasis on the expected amount of reward.

e.g. Immagine we have 2 adds that currently have the same average return. Add A and B respectively. Add A has only 2 trials where we tried using it. Add B has 100 trials where we used it. If we are more unsure about how volatile add A could be we will therefore want to prioritise using A instead of B because add A merits exploration and has good exploitation. This way we can balance these apposing views while still maximising expected reward.

Get the data

CTR stands for click through rate, which is the behaviour we want to optimize since we want to choose the add which maximises the number of people clicking on it

data_raw <-
  data.table::fread("../../static/data/intro_ml/Part6_Reinforcement_learning/UCB/Ads_CTR_Optimisation.csv") %>%
  tbl_df()

data_raw

## # A tibble: 10,000 x 10
##    `Ad 1` `Ad 2` `Ad 3` `Ad 4` `Ad 5` `Ad 6` `Ad 7` `Ad 8` `Ad 9` `Ad 10`
##     <int>  <int>  <int>  <int>  <int>  <int>  <int>  <int>  <int>   <int>
##  1      1      0      0      0      1      0      0      0      1       0
##  2      0      0      0      0      0      0      0      0      1       0
##  3      0      0      0      0      0      0      0      0      0       0
##  4      0      1      0      0      0      0      0      1      0       0
##  5      0      0      0      0      0      0      0      0      0       0
##  6      1      1      0      0      0      0      0      0      0       0
##  7      0      0      0      1      0      0      0      0      0       0
##  8      1      1      0      0      1      0      0      0      0       0
##  9      0      0      0      0      0      0      0      0      0       0
## 10      0      0      1      0      0      0      0      0      0       0
## # ... with 9,990 more rows
…
